{
    "license": "MIT",
    "native": true,
    "requirements": [
        "FascinatedBox/lily-spawni@v1.2.0"
    ],
    "source": "https://gitlab.com/FascinatedBox/lily-coretools",
    "summary": "Tools for working with Lily libraries.",
    "version": "v1.2.0"
}
